([('main.exe',
   'C:\\Users\\Mamayo\\PycharmProjects\\RepoPrograGraficaII\\Clases\\Texturas\\build\\main\\main.exe',
   'EXECUTABLE'),
  ('main.exe.manifest',
   'C:\\Users\\Mamayo\\PycharmProjects\\RepoPrograGraficaII\\Clases\\Texturas\\build\\main\\main.exe.manifest',
   'BINARY'),
  ('api-ms-win-crt-runtime-l1-1-0.dll',
   'c:\\users\\mamayo\\anaconda3\\envs\\programaciongraficaii\\api-ms-win-crt-runtime-l1-1-0.dll',
   'BINARY'),
  ('api-ms-win-crt-stdio-l1-1-0.dll',
   'c:\\users\\mamayo\\anaconda3\\envs\\programaciongraficaii\\api-ms-win-crt-stdio-l1-1-0.dll',
   'BINARY'),
  ('api-ms-win-crt-math-l1-1-0.dll',
   'c:\\users\\mamayo\\anaconda3\\envs\\programaciongraficaii\\api-ms-win-crt-math-l1-1-0.dll',
   'BINARY'),
  ('api-ms-win-crt-heap-l1-1-0.dll',
   'c:\\users\\mamayo\\anaconda3\\envs\\programaciongraficaii\\api-ms-win-crt-heap-l1-1-0.dll',
   'BINARY'),
  ('python37.dll',
   'c:\\users\\mamayo\\anaconda3\\envs\\programaciongraficaii\\python37.dll',
   'BINARY'),
  ('api-ms-win-crt-locale-l1-1-0.dll',
   'c:\\users\\mamayo\\anaconda3\\envs\\programaciongraficaii\\api-ms-win-crt-locale-l1-1-0.dll',
   'BINARY'),
  ('VCRUNTIME140.dll',
   'c:\\users\\mamayo\\anaconda3\\envs\\programaciongraficaii\\VCRUNTIME140.dll',
   'BINARY'),
  ('ucrtbase.dll',
   'c:\\users\\mamayo\\anaconda3\\envs\\programaciongraficaii\\ucrtbase.dll',
   'BINARY'),
  ('api-ms-win-crt-time-l1-1-0.dll',
   'c:\\users\\mamayo\\anaconda3\\envs\\programaciongraficaii\\api-ms-win-crt-time-l1-1-0.dll',
   'BINARY'),
  ('api-ms-win-crt-convert-l1-1-0.dll',
   'c:\\users\\mamayo\\anaconda3\\envs\\programaciongraficaii\\api-ms-win-crt-convert-l1-1-0.dll',
   'BINARY'),
  ('api-ms-win-crt-conio-l1-1-0.dll',
   'c:\\users\\mamayo\\anaconda3\\envs\\programaciongraficaii\\api-ms-win-crt-conio-l1-1-0.dll',
   'BINARY'),
  ('api-ms-win-crt-environment-l1-1-0.dll',
   'c:\\users\\mamayo\\anaconda3\\envs\\programaciongraficaii\\api-ms-win-crt-environment-l1-1-0.dll',
   'BINARY'),
  ('api-ms-win-crt-filesystem-l1-1-0.dll',
   'c:\\users\\mamayo\\anaconda3\\envs\\programaciongraficaii\\api-ms-win-crt-filesystem-l1-1-0.dll',
   'BINARY'),
  ('api-ms-win-crt-string-l1-1-0.dll',
   'c:\\users\\mamayo\\anaconda3\\envs\\programaciongraficaii\\api-ms-win-crt-string-l1-1-0.dll',
   'BINARY'),
  ('api-ms-win-crt-process-l1-1-0.dll',
   'c:\\users\\mamayo\\anaconda3\\envs\\programaciongraficaii\\api-ms-win-crt-process-l1-1-0.dll',
   'BINARY'),
  ('api-ms-win-core-synch-l1-1-0.dll',
   'c:\\users\\mamayo\\anaconda3\\envs\\programaciongraficaii\\api-ms-win-core-synch-l1-1-0.dll',
   'BINARY'),
  ('api-ms-win-core-synch-l1-2-0.dll',
   'c:\\users\\mamayo\\anaconda3\\envs\\programaciongraficaii\\api-ms-win-core-synch-l1-2-0.dll',
   'BINARY'),
  ('api-ms-win-core-file-l1-2-0.dll',
   'c:\\users\\mamayo\\anaconda3\\envs\\programaciongraficaii\\api-ms-win-core-file-l1-2-0.dll',
   'BINARY'),
  ('api-ms-win-core-libraryloader-l1-1-0.dll',
   'c:\\users\\mamayo\\anaconda3\\envs\\programaciongraficaii\\api-ms-win-core-libraryloader-l1-1-0.dll',
   'BINARY'),
  ('api-ms-win-core-errorhandling-l1-1-0.dll',
   'c:\\users\\mamayo\\anaconda3\\envs\\programaciongraficaii\\api-ms-win-core-errorhandling-l1-1-0.dll',
   'BINARY'),
  ('api-ms-win-core-datetime-l1-1-0.dll',
   'c:\\users\\mamayo\\anaconda3\\envs\\programaciongraficaii\\api-ms-win-core-datetime-l1-1-0.dll',
   'BINARY'),
  ('api-ms-win-core-rtlsupport-l1-1-0.dll',
   'c:\\users\\mamayo\\anaconda3\\envs\\programaciongraficaii\\api-ms-win-core-rtlsupport-l1-1-0.dll',
   'BINARY'),
  ('api-ms-win-core-timezone-l1-1-0.dll',
   'c:\\users\\mamayo\\anaconda3\\envs\\programaciongraficaii\\api-ms-win-core-timezone-l1-1-0.dll',
   'BINARY'),
  ('api-ms-win-core-sysinfo-l1-1-0.dll',
   'c:\\users\\mamayo\\anaconda3\\envs\\programaciongraficaii\\api-ms-win-core-sysinfo-l1-1-0.dll',
   'BINARY'),
  ('api-ms-win-core-file-l2-1-0.dll',
   'c:\\users\\mamayo\\anaconda3\\envs\\programaciongraficaii\\api-ms-win-core-file-l2-1-0.dll',
   'BINARY'),
  ('api-ms-win-core-heap-l1-1-0.dll',
   'c:\\users\\mamayo\\anaconda3\\envs\\programaciongraficaii\\api-ms-win-core-heap-l1-1-0.dll',
   'BINARY'),
  ('api-ms-win-core-handle-l1-1-0.dll',
   'c:\\users\\mamayo\\anaconda3\\envs\\programaciongraficaii\\api-ms-win-core-handle-l1-1-0.dll',
   'BINARY'),
  ('api-ms-win-core-debug-l1-1-0.dll',
   'c:\\users\\mamayo\\anaconda3\\envs\\programaciongraficaii\\api-ms-win-core-debug-l1-1-0.dll',
   'BINARY'),
  ('api-ms-win-core-file-l1-1-0.dll',
   'c:\\users\\mamayo\\anaconda3\\envs\\programaciongraficaii\\api-ms-win-core-file-l1-1-0.dll',
   'BINARY'),
  ('api-ms-win-core-processthreads-l1-1-0.dll',
   'c:\\users\\mamayo\\anaconda3\\envs\\programaciongraficaii\\api-ms-win-core-processthreads-l1-1-0.dll',
   'BINARY'),
  ('api-ms-win-core-localization-l1-2-0.dll',
   'c:\\users\\mamayo\\anaconda3\\envs\\programaciongraficaii\\api-ms-win-core-localization-l1-2-0.dll',
   'BINARY'),
  ('api-ms-win-core-processenvironment-l1-1-0.dll',
   'c:\\users\\mamayo\\anaconda3\\envs\\programaciongraficaii\\api-ms-win-core-processenvironment-l1-1-0.dll',
   'BINARY'),
  ('api-ms-win-core-console-l1-1-0.dll',
   'c:\\users\\mamayo\\anaconda3\\envs\\programaciongraficaii\\api-ms-win-core-console-l1-1-0.dll',
   'BINARY'),
  ('api-ms-win-core-string-l1-1-0.dll',
   'c:\\users\\mamayo\\anaconda3\\envs\\programaciongraficaii\\api-ms-win-core-string-l1-1-0.dll',
   'BINARY'),
  ('api-ms-win-core-profile-l1-1-0.dll',
   'c:\\users\\mamayo\\anaconda3\\envs\\programaciongraficaii\\api-ms-win-core-profile-l1-1-0.dll',
   'BINARY'),
  ('api-ms-win-core-namedpipe-l1-1-0.dll',
   'c:\\users\\mamayo\\anaconda3\\envs\\programaciongraficaii\\api-ms-win-core-namedpipe-l1-1-0.dll',
   'BINARY'),
  ('api-ms-win-core-util-l1-1-0.dll',
   'c:\\users\\mamayo\\anaconda3\\envs\\programaciongraficaii\\api-ms-win-core-util-l1-1-0.dll',
   'BINARY'),
  ('api-ms-win-core-processthreads-l1-1-1.dll',
   'c:\\users\\mamayo\\anaconda3\\envs\\programaciongraficaii\\api-ms-win-core-processthreads-l1-1-1.dll',
   'BINARY'),
  ('api-ms-win-core-interlocked-l1-1-0.dll',
   'c:\\users\\mamayo\\anaconda3\\envs\\programaciongraficaii\\api-ms-win-core-interlocked-l1-1-0.dll',
   'BINARY'),
  ('api-ms-win-core-memory-l1-1-0.dll',
   'c:\\users\\mamayo\\anaconda3\\envs\\programaciongraficaii\\api-ms-win-core-memory-l1-1-0.dll',
   'BINARY'),
  ('pywintypes37.dll',
   'c:\\users\\mamayo\\anaconda3\\envs\\programaciongraficaii\\lib\\site-packages\\pywin32_system32\\pywintypes37.dll',
   'BINARY'),
  ('libopenblas.PYQHXLVVQ7VESDPUVUADXEVJOBGHJPAY.gfortran-win_amd64.dll',
   'c:\\users\\mamayo\\anaconda3\\envs\\programaciongraficaii\\lib\\site-packages\\numpy\\.libs\\libopenblas.PYQHXLVVQ7VESDPUVUADXEVJOBGHJPAY.gfortran-win_amd64.dll',
   'BINARY'),
  ('pythoncom37.dll',
   'c:\\users\\mamayo\\anaconda3\\envs\\programaciongraficaii\\lib\\site-packages\\pywin32_system32\\pythoncom37.dll',
   'BINARY'),
  ('win32trace',
   'c:\\users\\mamayo\\anaconda3\\envs\\programaciongraficaii\\lib\\site-packages\\win32\\win32trace.pyd',
   'EXTENSION'),
  ('win32ui',
   'c:\\users\\mamayo\\anaconda3\\envs\\programaciongraficaii\\lib\\site-packages\\Pythonwin\\win32ui.pyd',
   'EXTENSION'),
  ('_lzma',
   'c:\\users\\mamayo\\anaconda3\\envs\\programaciongraficaii\\DLLs\\_lzma.pyd',
   'EXTENSION'),
  ('_bz2',
   'c:\\users\\mamayo\\anaconda3\\envs\\programaciongraficaii\\DLLs\\_bz2.pyd',
   'EXTENSION'),
  ('_socket',
   'c:\\users\\mamayo\\anaconda3\\envs\\programaciongraficaii\\DLLs\\_socket.pyd',
   'EXTENSION'),
  ('select',
   'c:\\users\\mamayo\\anaconda3\\envs\\programaciongraficaii\\DLLs\\select.pyd',
   'EXTENSION'),
  ('_hashlib',
   'c:\\users\\mamayo\\anaconda3\\envs\\programaciongraficaii\\DLLs\\_hashlib.pyd',
   'EXTENSION'),
  ('_ssl',
   'c:\\users\\mamayo\\anaconda3\\envs\\programaciongraficaii\\DLLs\\_ssl.pyd',
   'EXTENSION'),
  ('unicodedata',
   'c:\\users\\mamayo\\anaconda3\\envs\\programaciongraficaii\\DLLs\\unicodedata.pyd',
   'EXTENSION'),
  ('_multiprocessing',
   'c:\\users\\mamayo\\anaconda3\\envs\\programaciongraficaii\\DLLs\\_multiprocessing.pyd',
   'EXTENSION'),
  ('_queue',
   'c:\\users\\mamayo\\anaconda3\\envs\\programaciongraficaii\\DLLs\\_queue.pyd',
   'EXTENSION'),
  ('pyexpat',
   'c:\\users\\mamayo\\anaconda3\\envs\\programaciongraficaii\\DLLs\\pyexpat.pyd',
   'EXTENSION'),
  ('_decimal',
   'c:\\users\\mamayo\\anaconda3\\envs\\programaciongraficaii\\DLLs\\_decimal.pyd',
   'EXTENSION'),
  ('_ctypes',
   'c:\\users\\mamayo\\anaconda3\\envs\\programaciongraficaii\\DLLs\\_ctypes.pyd',
   'EXTENSION'),
  ('_win32sysloader',
   'c:\\users\\mamayo\\anaconda3\\envs\\programaciongraficaii\\lib\\site-packages\\win32\\_win32sysloader.pyd',
   'EXTENSION'),
  ('win32api',
   'c:\\users\\mamayo\\anaconda3\\envs\\programaciongraficaii\\lib\\site-packages\\win32\\win32api.pyd',
   'EXTENSION'),
  ('win32com.shell.shell',
   'c:\\users\\mamayo\\anaconda3\\envs\\programaciongraficaii\\lib\\site-packages\\win32comext\\shell\\shell.pyd',
   'EXTENSION'),
  ('win32wnet',
   'c:\\users\\mamayo\\anaconda3\\envs\\programaciongraficaii\\lib\\site-packages\\win32\\win32wnet.pyd',
   'EXTENSION'),
  ('pygame.color',
   'c:\\users\\mamayo\\anaconda3\\envs\\programaciongraficaii\\lib\\site-packages\\pygame\\color.cp37-win_amd64.pyd',
   'EXTENSION'),
  ('pygame.rect',
   'c:\\users\\mamayo\\anaconda3\\envs\\programaciongraficaii\\lib\\site-packages\\pygame\\rect.cp37-win_amd64.pyd',
   'EXTENSION'),
  ('pygame.constants',
   'c:\\users\\mamayo\\anaconda3\\envs\\programaciongraficaii\\lib\\site-packages\\pygame\\constants.cp37-win_amd64.pyd',
   'EXTENSION'),
  ('numpy.core._multiarray_tests',
   'c:\\users\\mamayo\\anaconda3\\envs\\programaciongraficaii\\lib\\site-packages\\numpy\\core\\_multiarray_tests.cp37-win_amd64.pyd',
   'EXTENSION'),
  ('numpy.core._multiarray_umath',
   'c:\\users\\mamayo\\anaconda3\\envs\\programaciongraficaii\\lib\\site-packages\\numpy\\core\\_multiarray_umath.cp37-win_amd64.pyd',
   'EXTENSION'),
  ('win32pdh',
   'c:\\users\\mamayo\\anaconda3\\envs\\programaciongraficaii\\lib\\site-packages\\win32\\win32pdh.pyd',
   'EXTENSION'),
  ('numpy.random.mtrand',
   'c:\\users\\mamayo\\anaconda3\\envs\\programaciongraficaii\\lib\\site-packages\\numpy\\random\\mtrand.cp37-win_amd64.pyd',
   'EXTENSION'),
  ('numpy.random._sfc64',
   'c:\\users\\mamayo\\anaconda3\\envs\\programaciongraficaii\\lib\\site-packages\\numpy\\random\\_sfc64.cp37-win_amd64.pyd',
   'EXTENSION'),
  ('numpy.random._philox',
   'c:\\users\\mamayo\\anaconda3\\envs\\programaciongraficaii\\lib\\site-packages\\numpy\\random\\_philox.cp37-win_amd64.pyd',
   'EXTENSION'),
  ('numpy.random._pcg64',
   'c:\\users\\mamayo\\anaconda3\\envs\\programaciongraficaii\\lib\\site-packages\\numpy\\random\\_pcg64.cp37-win_amd64.pyd',
   'EXTENSION'),
  ('numpy.random._mt19937',
   'c:\\users\\mamayo\\anaconda3\\envs\\programaciongraficaii\\lib\\site-packages\\numpy\\random\\_mt19937.cp37-win_amd64.pyd',
   'EXTENSION'),
  ('numpy.random._bit_generator',
   'c:\\users\\mamayo\\anaconda3\\envs\\programaciongraficaii\\lib\\site-packages\\numpy\\random\\_bit_generator.cp37-win_amd64.pyd',
   'EXTENSION'),
  ('numpy.random._generator',
   'c:\\users\\mamayo\\anaconda3\\envs\\programaciongraficaii\\lib\\site-packages\\numpy\\random\\_generator.cp37-win_amd64.pyd',
   'EXTENSION'),
  ('numpy.random._bounded_integers',
   'c:\\users\\mamayo\\anaconda3\\envs\\programaciongraficaii\\lib\\site-packages\\numpy\\random\\_bounded_integers.cp37-win_amd64.pyd',
   'EXTENSION'),
  ('numpy.random._common',
   'c:\\users\\mamayo\\anaconda3\\envs\\programaciongraficaii\\lib\\site-packages\\numpy\\random\\_common.cp37-win_amd64.pyd',
   'EXTENSION'),
  ('numpy.fft._pocketfft_internal',
   'c:\\users\\mamayo\\anaconda3\\envs\\programaciongraficaii\\lib\\site-packages\\numpy\\fft\\_pocketfft_internal.cp37-win_amd64.pyd',
   'EXTENSION'),
  ('numpy.linalg._umath_linalg',
   'c:\\users\\mamayo\\anaconda3\\envs\\programaciongraficaii\\lib\\site-packages\\numpy\\linalg\\_umath_linalg.cp37-win_amd64.pyd',
   'EXTENSION'),
  ('numpy.linalg.lapack_lite',
   'c:\\users\\mamayo\\anaconda3\\envs\\programaciongraficaii\\lib\\site-packages\\numpy\\linalg\\lapack_lite.cp37-win_amd64.pyd',
   'EXTENSION'),
  ('pygame.imageext',
   'c:\\users\\mamayo\\anaconda3\\envs\\programaciongraficaii\\lib\\site-packages\\pygame\\imageext.cp37-win_amd64.pyd',
   'EXTENSION'),
  ('pygame.fastevent',
   'c:\\users\\mamayo\\anaconda3\\envs\\programaciongraficaii\\lib\\site-packages\\pygame\\fastevent.cp37-win_amd64.pyd',
   'EXTENSION'),
  ('pygame.scrap',
   'c:\\users\\mamayo\\anaconda3\\envs\\programaciongraficaii\\lib\\site-packages\\pygame\\scrap.cp37-win_amd64.pyd',
   'EXTENSION'),
  ('pygame.mixer',
   'c:\\users\\mamayo\\anaconda3\\envs\\programaciongraficaii\\lib\\site-packages\\pygame\\mixer.cp37-win_amd64.pyd',
   'EXTENSION'),
  ('pygame.mixer_music',
   'c:\\users\\mamayo\\anaconda3\\envs\\programaciongraficaii\\lib\\site-packages\\pygame\\mixer_music.cp37-win_amd64.pyd',
   'EXTENSION'),
  ('_elementtree',
   'c:\\users\\mamayo\\anaconda3\\envs\\programaciongraficaii\\DLLs\\_elementtree.pyd',
   'EXTENSION'),
  ('pygame.font',
   'c:\\users\\mamayo\\anaconda3\\envs\\programaciongraficaii\\lib\\site-packages\\pygame\\font.cp37-win_amd64.pyd',
   'EXTENSION'),
  ('pygame._freetype',
   'c:\\users\\mamayo\\anaconda3\\envs\\programaciongraficaii\\lib\\site-packages\\pygame\\_freetype.cp37-win_amd64.pyd',
   'EXTENSION'),
  ('pygame.transform',
   'c:\\users\\mamayo\\anaconda3\\envs\\programaciongraficaii\\lib\\site-packages\\pygame\\transform.cp37-win_amd64.pyd',
   'EXTENSION'),
  ('pygame.time',
   'c:\\users\\mamayo\\anaconda3\\envs\\programaciongraficaii\\lib\\site-packages\\pygame\\time.cp37-win_amd64.pyd',
   'EXTENSION'),
  ('pygame.overlay',
   'c:\\users\\mamayo\\anaconda3\\envs\\programaciongraficaii\\lib\\site-packages\\pygame\\overlay.cp37-win_amd64.pyd',
   'EXTENSION'),
  ('pygame.pixelarray',
   'c:\\users\\mamayo\\anaconda3\\envs\\programaciongraficaii\\lib\\site-packages\\pygame\\pixelarray.cp37-win_amd64.pyd',
   'EXTENSION'),
  ('pygame.mask',
   'c:\\users\\mamayo\\anaconda3\\envs\\programaciongraficaii\\lib\\site-packages\\pygame\\mask.cp37-win_amd64.pyd',
   'EXTENSION'),
  ('pygame.surface',
   'c:\\users\\mamayo\\anaconda3\\envs\\programaciongraficaii\\lib\\site-packages\\pygame\\surface.cp37-win_amd64.pyd',
   'EXTENSION'),
  ('pygame.pixelcopy',
   'c:\\users\\mamayo\\anaconda3\\envs\\programaciongraficaii\\lib\\site-packages\\pygame\\pixelcopy.cp37-win_amd64.pyd',
   'EXTENSION'),
  ('pygame.mouse',
   'c:\\users\\mamayo\\anaconda3\\envs\\programaciongraficaii\\lib\\site-packages\\pygame\\mouse.cp37-win_amd64.pyd',
   'EXTENSION'),
  ('pygame.key',
   'c:\\users\\mamayo\\anaconda3\\envs\\programaciongraficaii\\lib\\site-packages\\pygame\\key.cp37-win_amd64.pyd',
   'EXTENSION'),
  ('pygame.joystick',
   'c:\\users\\mamayo\\anaconda3\\envs\\programaciongraficaii\\lib\\site-packages\\pygame\\joystick.cp37-win_amd64.pyd',
   'EXTENSION'),
  ('pygame.image',
   'c:\\users\\mamayo\\anaconda3\\envs\\programaciongraficaii\\lib\\site-packages\\pygame\\image.cp37-win_amd64.pyd',
   'EXTENSION'),
  ('pygame.event',
   'c:\\users\\mamayo\\anaconda3\\envs\\programaciongraficaii\\lib\\site-packages\\pygame\\event.cp37-win_amd64.pyd',
   'EXTENSION'),
  ('pygame.draw',
   'c:\\users\\mamayo\\anaconda3\\envs\\programaciongraficaii\\lib\\site-packages\\pygame\\draw.cp37-win_amd64.pyd',
   'EXTENSION'),
  ('pygame.display',
   'c:\\users\\mamayo\\anaconda3\\envs\\programaciongraficaii\\lib\\site-packages\\pygame\\display.cp37-win_amd64.pyd',
   'EXTENSION'),
  ('pygame.cdrom',
   'c:\\users\\mamayo\\anaconda3\\envs\\programaciongraficaii\\lib\\site-packages\\pygame\\cdrom.cp37-win_amd64.pyd',
   'EXTENSION'),
  ('pygame.math',
   'c:\\users\\mamayo\\anaconda3\\envs\\programaciongraficaii\\lib\\site-packages\\pygame\\math.cp37-win_amd64.pyd',
   'EXTENSION'),
  ('pygame.bufferproxy',
   'c:\\users\\mamayo\\anaconda3\\envs\\programaciongraficaii\\lib\\site-packages\\pygame\\bufferproxy.cp37-win_amd64.pyd',
   'EXTENSION'),
  ('pygame.surflock',
   'c:\\users\\mamayo\\anaconda3\\envs\\programaciongraficaii\\lib\\site-packages\\pygame\\surflock.cp37-win_amd64.pyd',
   'EXTENSION'),
  ('pygame.rwobject',
   'c:\\users\\mamayo\\anaconda3\\envs\\programaciongraficaii\\lib\\site-packages\\pygame\\rwobject.cp37-win_amd64.pyd',
   'EXTENSION'),
  ('pygame.base',
   'c:\\users\\mamayo\\anaconda3\\envs\\programaciongraficaii\\lib\\site-packages\\pygame\\base.cp37-win_amd64.pyd',
   'EXTENSION'),
  ('OpenGL_accelerate.vbo',
   'c:\\users\\mamayo\\anaconda3\\envs\\programaciongraficaii\\lib\\site-packages\\OpenGL_accelerate\\vbo.cp37-win_amd64.pyd',
   'EXTENSION'),
  ('OpenGL_accelerate.formathandler',
   'c:\\users\\mamayo\\anaconda3\\envs\\programaciongraficaii\\lib\\site-packages\\OpenGL_accelerate\\formathandler.cp37-win_amd64.pyd',
   'EXTENSION'),
  ('OpenGL_accelerate.wrapper',
   'c:\\users\\mamayo\\anaconda3\\envs\\programaciongraficaii\\lib\\site-packages\\OpenGL_accelerate\\wrapper.cp37-win_amd64.pyd',
   'EXTENSION'),
  ('OpenGL_accelerate.arraydatatype',
   'c:\\users\\mamayo\\anaconda3\\envs\\programaciongraficaii\\lib\\site-packages\\OpenGL_accelerate\\arraydatatype.cp37-win_amd64.pyd',
   'EXTENSION'),
  ('OpenGL_accelerate.latebind',
   'c:\\users\\mamayo\\anaconda3\\envs\\programaciongraficaii\\lib\\site-packages\\OpenGL_accelerate\\latebind.cp37-win_amd64.pyd',
   'EXTENSION'),
  ('OpenGL_accelerate.errorchecker',
   'c:\\users\\mamayo\\anaconda3\\envs\\programaciongraficaii\\lib\\site-packages\\OpenGL_accelerate\\errorchecker.cp37-win_amd64.pyd',
   'EXTENSION'),
  ('api-ms-win-crt-utility-l1-1-0.dll',
   'c:\\users\\mamayo\\anaconda3\\envs\\programaciongraficaii\\api-ms-win-crt-utility-l1-1-0.dll',
   'BINARY'),
  ('mfc140u.dll',
   'c:\\users\\mamayo\\anaconda3\\envs\\programaciongraficaii\\lib\\site-packages\\Pythonwin\\mfc140u.dll',
   'BINARY'),
  ('libcrypto-1_1-x64.dll',
   'C:\\Users\\Mamayo\\Anaconda3\\envs\\ProgramacionGraficaII\\Library\\bin\\libcrypto-1_1-x64.dll',
   'BINARY'),
  ('libssl-1_1-x64.dll',
   'C:\\Users\\Mamayo\\Anaconda3\\envs\\ProgramacionGraficaII\\Library\\bin\\libssl-1_1-x64.dll',
   'BINARY'),
  ('SDL.dll',
   'c:\\users\\mamayo\\anaconda3\\envs\\programaciongraficaii\\lib\\site-packages\\pygame\\SDL.dll',
   'BINARY'),
  ('libjpeg-8.dll',
   'c:\\users\\mamayo\\anaconda3\\envs\\programaciongraficaii\\lib\\site-packages\\pygame\\libjpeg-8.dll',
   'BINARY'),
  ('libpng16-16.dll',
   'c:\\users\\mamayo\\anaconda3\\envs\\programaciongraficaii\\lib\\site-packages\\pygame\\libpng16-16.dll',
   'BINARY'),
  ('SDL_image.dll',
   'c:\\users\\mamayo\\anaconda3\\envs\\programaciongraficaii\\lib\\site-packages\\pygame\\SDL_image.dll',
   'BINARY'),
  ('SDL_mixer.dll',
   'c:\\users\\mamayo\\anaconda3\\envs\\programaciongraficaii\\lib\\site-packages\\pygame\\SDL_mixer.dll',
   'BINARY'),
  ('SDL_ttf.dll',
   'c:\\users\\mamayo\\anaconda3\\envs\\programaciongraficaii\\lib\\site-packages\\pygame\\SDL_ttf.dll',
   'BINARY'),
  ('libfreetype-6.dll',
   'c:\\users\\mamayo\\anaconda3\\envs\\programaciongraficaii\\lib\\site-packages\\pygame\\libfreetype-6.dll',
   'BINARY'),
  ('api-ms-win-crt-multibyte-l1-1-0.dll',
   'c:\\users\\mamayo\\anaconda3\\envs\\programaciongraficaii\\api-ms-win-crt-multibyte-l1-1-0.dll',
   'BINARY'),
  ('zlib1.dll',
   'c:\\users\\mamayo\\anaconda3\\envs\\programaciongraficaii\\lib\\site-packages\\pygame\\zlib1.dll',
   'BINARY'),
  ('libwebp-5.dll',
   'c:\\users\\mamayo\\anaconda3\\envs\\programaciongraficaii\\lib\\site-packages\\pygame\\libwebp-5.dll',
   'BINARY'),
  ('libtiff-5.dll',
   'c:\\users\\mamayo\\anaconda3\\envs\\programaciongraficaii\\lib\\site-packages\\pygame\\libtiff-5.dll',
   'BINARY'),
  ('libmpg123-0.dll',
   'c:\\users\\mamayo\\anaconda3\\envs\\programaciongraficaii\\lib\\site-packages\\pygame\\libmpg123-0.dll',
   'BINARY'),
  ('libvorbisfile-3.dll',
   'c:\\users\\mamayo\\anaconda3\\envs\\programaciongraficaii\\lib\\site-packages\\pygame\\libvorbisfile-3.dll',
   'BINARY'),
  ('libogg-0.dll',
   'c:\\users\\mamayo\\anaconda3\\envs\\programaciongraficaii\\lib\\site-packages\\pygame\\libogg-0.dll',
   'BINARY'),
  ('libvorbis-0.dll',
   'c:\\users\\mamayo\\anaconda3\\envs\\programaciongraficaii\\lib\\site-packages\\pygame\\libvorbis-0.dll',
   'BINARY'),
  ('base_library.zip',
   'C:\\Users\\Mamayo\\PycharmProjects\\RepoPrograGraficaII\\Clases\\Texturas\\build\\main\\base_library.zip',
   'DATA'),
  ('Include\\pyconfig.h',
   'c:\\users\\mamayo\\anaconda3\\envs\\programaciongraficaii\\Include\\pyconfig.h',
   'DATA'),
  ('lib2to3\\PatternGrammar3.7.7.final.0.pickle',
   'c:\\users\\mamayo\\anaconda3\\envs\\programaciongraficaii\\lib\\lib2to3\\PatternGrammar3.7.7.final.0.pickle',
   'DATA'),
  ('lib2to3\\Grammar3.7.7.final.0.pickle',
   'c:\\users\\mamayo\\anaconda3\\envs\\programaciongraficaii\\lib\\lib2to3\\Grammar3.7.7.final.0.pickle',
   'DATA'),
  ('lib2to3\\PatternGrammar.txt',
   'c:\\users\\mamayo\\anaconda3\\envs\\programaciongraficaii\\lib\\lib2to3\\PatternGrammar.txt',
   'DATA'),
  ('lib2to3\\Grammar.txt',
   'c:\\users\\mamayo\\anaconda3\\envs\\programaciongraficaii\\lib\\lib2to3\\Grammar.txt',
   'DATA')],)
